Get Resources from Statistics Indonesia (BPS) API • bpsr
…
Functions to request datasets have bps_get_ prefix. Use bps_get_dataset() to request a dataset.

data <- bps_get_dataset(table$dataset_id[[1]], lang = "eng")
data
#> # A tibble: 558 × 5
#>    vertical_var derived_var  year period   var
#>    <chr>        <chr>       <int> <chr>  <dbl>
#>  1 INDONESIA    Male         2014 Annual  18.8
#>  2 INDONESIA    Male         2015 Annual  23.7
#>  3 INDONESIA    Male         2016 Annual  27.2
#>  4 INDONESIA    Male         2017 Annual  34.5
#>  5 INDONESIA    Male         2018 Annual  42.3
#>  6 INDONESIA    Male         2019 Annual  50.5
#>  7 INDONESIA    Male         2020 Annual  56.6
#>  8 INDONESIA    Male         2021 Annual  65.0
#>  9 INDONESIA    Female       2014 Annual  15.4
#> 10 INDONESIA    Female       2015 Annual  20.2
#> # … with 548 more rows
#> # ℹ Read the metadata with `bps_metadata()`
Under the hood, bpsr parses the JSON returned by the API into a tibble. More importantly, the package arranges the dataset in a tidy structure, which is well suited for analysis.

Use bps_get_trade_hs_*() to request trade datasets. These trade functions take the Harmonized System (HS) chapter or code as the first argument. To look up the HS chapter or code, use bps_hs_code().

hs <- bps_hs_code()

export <- bps_get_trade_hs_chapter(
  hs$hs_chapter[[1]],
  "export", 
  year = 2021,
  freq = "annual"
)

export
#> # A tibble: 67 × 7
#>    hs_chapter description    port                   partner  year net_w…¹ export
#>    <chr>      <chr>          <chr>                  <chr>   <int>   <dbl>  <dbl>
#>  1 01         Binatang hidup ATAPUPU                EAST T…  2021  1.50e4 1.98e5
#>  2 01         Binatang hidup KUALA NAMU INTERNATIO… JAPAN    2021  5   e0 1.03e2
#>  3 01         Binatang hidup KUALA NAMU INTERNATIO… SINGAP…  2021  1.50e4 1.77e4
#>  4 01         Binatang hidup KUALA TANJUNG          MALAYS…  2021  2.36e4 6.51e4
#>  5 01         Binatang hidup NGURAH RAI (U)         EAST T…  2021  1.93e3 1.12e4
#>  6 01         Binatang hidup NGURAH RAI (U)         HONG K…  2021  2.4 e2 2.05e4
#>  7 01         Binatang hidup SEKUPANG               SINGAP…  2021  2.52e7 5.59e7
#>  8 01         Binatang hidup SOEKARNO-HATTA (U)     AFGHAN…  2021  1.28e2 5.5 e4
#>  9 01         Binatang hidup SOEKARNO-HATTA (U)     AUSTRIA  2021  6   e1 2.07e2
#> 10 01         Binatang hidup SOEKARNO-HATTA (U)     BAHRAIN  2021  1.27e2 8.40e3
#> # … with 57 more rows, and abbreviated variable name ¹​net_weight
#> # ℹ Read the metadata with `bps_metadata()`
…
