…
Functions to request datasets have `bps_get_` prefix. Use
`bps_get_dataset()` to request a dataset.

``` r
data <- bps_get_dataset(table$dataset_id[[1]], lang = "eng")
data
#> # A tibble: 558 × 5
#>    vertical_var derived_var  year period   var
#>    <chr>        <chr>       <int> <chr>  <dbl>
#>  1 INDONESIA    Male         2014 Annual  18.8
#>  2 INDONESIA    Male         2015 Annual  23.7
#>  3 INDONESIA    Male         2016 Annual  27.2
#>  4 INDONESIA    Male         2017 Annual  34.5
#>  5 INDONESIA    Male         2018 Annual  42.3
#>  6 INDONESIA    Male         2019 Annual  50.5
#>  7 INDONESIA    Male         2020 Annual  56.6
#>  8 INDONESIA    Male         2021 Annual  65.0
#>  9 INDONESIA    Female       2014 Annual  15.4
#> 10 INDONESIA    Female       2015 Annual  20.2
#> # ℹ 548 more rows
#> # ℹ Read the metadata with `bps_metadata()`
```
…
``` r
hs <- bps_hs_code()

export <- bps_get_trade_hs_chapter(
  hs$hs_chapter[[1]],
  "export", 
  year = 2021,
  freq = "annual"
)

export
#> # A tibble: 67 × 7
#>    hs_chapter description    port                partner  year net_weight export
#>    <chr>      <chr>          <chr>               <chr>   <int>      <dbl>  <dbl>
#>  1 01         Binatang hidup ATAPUPU             EAST T…  2021     15036. 1.98e5
#>  2 01         Binatang hidup KUALA NAMU INTERNA… JAPAN    2021         5  1.03e2
#>  3 01         Binatang hidup KUALA NAMU INTERNA… SINGAP…  2021     14950  1.77e4
#>  4 01         Binatang hidup KUALA TANJUNG       MALAYS…  2021     23601  6.51e4
#>  5 01         Binatang hidup NGURAH RAI (U)      EAST T…  2021      1932. 1.13e4
#>  6 01         Binatang hidup NGURAH RAI (U)      HONG K…  2021       240  2.05e4
#>  7 01         Binatang hidup SEKUPANG            SINGAP…  2021  25167463. 5.59e7
#>  8 01         Binatang hidup SOEKARNO-HATTA (U)  AFGHAN…  2021       128  5.50e4
#>  9 01         Binatang hidup SOEKARNO-HATTA (U)  AUSTRIA  2021        60  2.07e2
#> 10 01         Binatang hidup SOEKARNO-HATTA (U)  BAHRAIN  2021       127  8.40e3
#> # ℹ 57 more rows
#> # ℹ Read the metadata with `bps_metadata()`
```
…
