Request trade data — bps_get_trade_hs_chapter • bpsr
…
bps_get_trade_hs_chapter() and bps_get_trade_hs_full() return a tibble
with the bpsr_tbl subclass, which has a metadata attribtue. Use
bps_metadata() to read it.

bps_guess_latest_trade_year() returns an integer.

    Scope

    The API provides export and import data only as far back as 2014.

    Examples

# Request by the HS chapter
bps_get_trade_hs_chapter("03", "export", year = 2018)
#> # A tibble: 3,844 × 8
#>    hs_chapter description               port  partner  year month net_w…¹ export
#>    <chr>      <chr>                     <chr> <chr>   <int> <int>   <dbl>  <dbl>
#>  1 03         Ikan dan krustasea, molu… ACHM… AUSTRA…  2018     9    2       5  
#>  2 03         Ikan dan krustasea, molu… ACHM… AUSTRA…  2018    10    6.84   27.1
#>  3 03         Ikan dan krustasea, molu… ACHM… HONG K…  2018     1  100     130  
#>  4 03         Ikan dan krustasea, molu… ACHM… HONG K…  2018     7   31      40  
#>  5 03         Ikan dan krustasea, molu… ACHM… HONG K…  2018    12   10       5  
#>  6 03         Ikan dan krustasea, molu… ACHM… JAPAN    2018     1    7.3    72.9
#>  7 03         Ikan dan krustasea, molu… ACHM… JAPAN    2018     2   14.6   119. 
#>  8 03         Ikan dan krustasea, molu… ACHM… JAPAN    2018     3   18.6   163. 
#>  9 03         Ikan dan krustasea, molu… ACHM… JAPAN    2018     4    8.20   43.7
#> 10 03         Ikan dan krustasea, molu… ACHM… JAPAN    2018     5  659    7452. 
#> # … with 3,834 more rows, and abbreviated variable name ¹​net_weight
#> # ℹ Read the metadata with `bps_metadata()`
…
