Look up and request dataset — bps_dataset • bpsr
…
    Request filter

    Filter a request by multiple values of vertical_var_id,
derived_var_id, year_id or period_id by supplying a vector of the IDs,
to bps_get_dataset(). For example, vertical_var_id = c("1100", "1200").

For year_id and period_id, filter by a range of values by concatenating
the start and the end of the range using a colon, e.g.
year_id = "118:121" for observations from 2018 to 2021.

    Examples

# Get the dataset on consumer price index of food category
bps_get_dataset("1905", lang = "eng")
#> # A tibble: 16,852 × 5
#>    vertical_var  derived_var                   year period      var
#>    <chr>         <chr>                        <int> <chr>     <dbl>
#>  1 KOTA MEULABOH Foods, Beverages and Tobacco  2020 January    112.
#>  2 KOTA MEULABOH Foods, Beverages and Tobacco  2020 February   111.
#>  3 KOTA MEULABOH Foods, Beverages and Tobacco  2020 March      112.
#>  4 KOTA MEULABOH Foods, Beverages and Tobacco  2020 April      111.
#>  5 KOTA MEULABOH Foods, Beverages and Tobacco  2020 May        113.
#>  6 KOTA MEULABOH Foods, Beverages and Tobacco  2020 June       112.
#>  7 KOTA MEULABOH Foods, Beverages and Tobacco  2020 July       111.
#>  8 KOTA MEULABOH Foods, Beverages and Tobacco  2020 August     113.
#>  9 KOTA MEULABOH Foods, Beverages and Tobacco  2020 September  113.
#> 10 KOTA MEULABOH Foods, Beverages and Tobacco  2020 October    114.
#> # ℹ 16,842 more rows
#> # ℹ Read the metadata with `bps_metadata()`
…
