bpsr • bpsr
…
Now, we can finally request the HDI datasets using
bps_get_dataset(). Let’s start with the headline index.

table_data_hdi_hl <- dplyr::filter(
  table_data_hdi, 
  title == "[New Method] Human Development Index"
)

hdi_headline <- bps_get_dataset(table_data_hdi_hl$dataset_id, lang = "eng")
hdi_headline
#> # A tibble: 7,067 × 5
#>    vertical_var derived_var  year period   var
#>    <chr>        <chr>       <int> <chr>  <dbl>
#>  1 ACEH         NA           2010 Annual  67.1
#>  2 ACEH         NA           2011 Annual  67.4
#>  3 ACEH         NA           2012 Annual  67.8
#>  4 ACEH         NA           2013 Annual  68.3
#>  5 ACEH         NA           2014 Annual  68.8
#>  6 ACEH         NA           2015 Annual  69.4
#>  7 ACEH         NA           2016 Annual  70  
#>  8 ACEH         NA           2017 Annual  70.6
#>  9 ACEH         NA           2018 Annual  71.2
#> 10 ACEH         NA           2019 Annual  71.9
#> # … with 7,057 more rows
#> # ℹ Read the metadata with `bps_metadata()`
…
When working with multiple datasets, we usually want to join them. We
can easily do this as we have told bps_get_datasets() to
give us the vertical_var_id column, which is useful to join
datasets that may have different styles or conventions for the shared
variable.

school_mean_year <- rename(hdi_edu$`415`, mean_years = var)
school_expected_year <- rename(hdi_edu$`417`, expected_years = var)

left_join(school_mean_year, school_expected_year)
#> Joining, by = c("vertical_var_id", "vertical_var", "derived_var", "year",
#> "period")
#> # A tibble: 7,067 × 7
#>    vertical_var_id vertical_var derived_var  year period mean_years expected_y…¹
#>    <chr>           <chr>        <chr>       <int> <chr>       <dbl>        <dbl>
#>  1 1100            ACEH         NA           2010 Annual       8.28         12.9
#>  2 1100            ACEH         NA           2011 Annual       8.32         13.0
#>  3 1100            ACEH         NA           2012 Annual       8.36         13.2
#>  4 1100            ACEH         NA           2013 Annual       8.44         13.4
#>  5 1100            ACEH         NA           2014 Annual       8.71         13.5
#>  6 1100            ACEH         NA           2015 Annual       8.77         13.7
#>  7 1100            ACEH         NA           2016 Annual       8.86         13.9
#>  8 1100            ACEH         NA           2017 Annual       8.98         14.1
#>  9 1100            ACEH         NA           2018 Annual       9.09         14.3
#> 10 1100            ACEH         NA           2019 Annual       9.18         14.3
#> # … with 7,057 more rows, and abbreviated variable name ¹​expected_years
…
